{
  "info": {
    "name": "awx-api",
    "schema": "https://schema.getpostman.com/json/collection/v2.1.0/collection.json"
  },
  "item": [
    {
      "name": "Preparation",
      "item": [
        {
          "name": "Request",
          "request": {
            "method": "GET",
            "url": {
              "raw": "{{awx_api_endpoint}}/",
              "query": null,
              "protocol": null,
              "host": [
                "{{awx_api_endpoint}}/"
              ],
              "port": null,
              "path": null
            },
            "description": "",
            "header": [],
            "body": null,
            "auth": null
          },
          "protocolProfileBehavior": {
            "followRedirects": false,
            "followOriginalHttpMethod": false,
            "followAuthorizationHeader": false
          },
          "response": []
        },
        {
          "name": "List Orgs",
          "request": {
            "method": "GET",
            "url": {
              "raw": "{{awx_api_endpoint}}/organizations/",
              "query": null,
              "protocol": null,
              "host": [
                "{{awx_api_endpoint}}/organizations/"
              ],
              "port": null,
              "path": null
            },
            "description": "",
            "header": [],
            "body": null,
            "auth": {
              "type": "basic",
              "basic": [
                {
                  "key": "username",
                  "value": "{{vra_login}}",
                  "type": "string"
                },
                {
                  "key": "password",
                  "value": "{{vra_password}}",
                  "type": "string"
                }
              ]
            }
          },
          "protocolProfileBehavior": {
            "followRedirects": false,
            "followOriginalHttpMethod": false,
            "followAuthorizationHeader": false
          },
          "response": []
        },
        {
          "name": "Get Org 2",
          "request": {
            "method": "GET",
            "url": {
              "raw": "{{awx_api_endpoint}}/organizations/2/",
              "query": null,
              "protocol": null,
              "host": [
                "{{awx_api_endpoint}}/organizations/2/"
              ],
              "port": null,
              "path": null
            },
            "description": "",
            "header": [],
            "body": null,
            "auth": {
              "type": "basic",
              "basic": [
                {
                  "key": "username",
                  "value": "{{admin_login}}",
                  "type": "string"
                },
                {
                  "key": "password",
                  "value": "{{admin_password}}",
                  "type": "string"
                }
              ]
            }
          },
          "protocolProfileBehavior": {
            "followRedirects": false,
            "followOriginalHttpMethod": false,
            "followAuthorizationHeader": false
          },
          "response": []
        },
        {
          "name": "Create App",
          "request": {
            "method": "POST",
            "url": {
              "raw": "{{awx_api_endpoint}}/applications/",
              "query": null,
              "protocol": null,
              "host": [
                "{{awx_api_endpoint}}/applications/"
              ],
              "port": null,
              "path": null
            },
            "description": "",
            "header": [
              {
                "key": "Content-Type",
                "value": "application/json",
                "disabled": false,
                "description": null
              }
            ],
            "body": {
              "mode": "raw",
              "disabled": false,
              "raw": "{\"name\":\"vRS Apps\",\"description\":\"vRealize Suite Integrations\",\"client_type\":\"confidential\",\"authorization_grant_type\":\"password\",\"skip_authorization\":false,\"organization\":2}"
            },
            "auth": {
              "type": "basic",
              "basic": [
                {
                  "key": "username",
                  "value": "{{admin_login}}",
                  "type": "string"
                },
                {
                  "key": "password",
                  "value": "{{admin_password}}",
                  "type": "string"
                }
              ]
            }
          },
          "protocolProfileBehavior": {
            "followRedirects": false,
            "followOriginalHttpMethod": false,
            "followAuthorizationHeader": false
          },
          "response": []
        },
        {
          "name": "List Apps",
          "request": {
            "method": "GET",
            "url": {
              "raw": "{{awx_api_endpoint}}/applications/",
              "query": null,
              "protocol": null,
              "host": [
                "{{awx_api_endpoint}}/applications/"
              ],
              "port": null,
              "path": null
            },
            "description": "",
            "header": [],
            "body": null,
            "auth": {
              "type": "basic",
              "basic": [
                {
                  "key": "username",
                  "value": "{{admin_login}}",
                  "type": "string"
                },
                {
                  "key": "password",
                  "value": "{{admin_password}}",
                  "type": "string"
                }
              ]
            }
          },
          "protocolProfileBehavior": {
            "followRedirects": false,
            "followOriginalHttpMethod": false,
            "followAuthorizationHeader": false
          },
          "response": []
        },
        {
          "name": "List Orgs (with OAuth2)",
          "request": {
            "method": "GET",
            "url": {
              "raw": "{{awx_api_endpoint}}/organizations/",
              "query": null,
              "protocol": null,
              "host": [
                "{{awx_api_endpoint}}/organizations/"
              ],
              "port": null,
              "path": null
            },
            "description": "",
            "header": [],
            "body": null,
            "auth": {
              "type": "oauth2",
              "oauth2": [
                {
                  "key": "accessToken",
                  "value": "***** Hidden credentials *****",
                  "type": "string"
                },
                {
                  "key": "addTokenTo",
                  "value": "header",
                  "type": "string"
                }
              ]
            }
          },
          "protocolProfileBehavior": {
            "followRedirects": false,
            "followOriginalHttpMethod": false,
            "followAuthorizationHeader": false
          },
          "response": []
        }
      ],
      "protocolProfileBehavior": null,
      "response": []
    },
    {
      "name": "Tasks",
      "item": [
        {
          "name": "0 - Get Token",
          "item": [
            {
              "name": "Get Token",
              "request": {
                "method": "POST",
                "url": {
                  "raw": "{{awx_token_endpoint}}",
                  "query": null,
                  "protocol": null,
                  "host": [
                    "{{awx_token_endpoint}}"
                  ],
                  "port": null,
                  "path": null
                },
                "description": "",
                "header": [
                  {
                    "key": "Content-Type",
                    "value": "application/x-www-form-urlencoded",
                    "disabled": false,
                    "description": null
                  }
                ],
                "body": {
                  "mode": "urlencoded",
                  "disabled": false,
                  "urlencoded": [
                    {
                      "key": "grant_type",
                      "value": "password",
                      "disabled": false,
                      "description": null
                    },
                    {
                      "key": "username",
                      "value": "{{vra_login}}",
                      "disabled": false,
                      "description": null
                    },
                    {
                      "key": "password",
                      "value": "{{vra_password}}",
                      "disabled": false,
                      "description": null
                    },
                    {
                      "key": "scope",
                      "value": "write",
                      "disabled": false,
                      "description": null
                    }
                  ]
                },
                "auth": {
                  "type": "basic",
                  "basic": [
                    {
                      "key": "username",
                      "value": "{{app_client_id}}",
                      "type": "string"
                    },
                    {
                      "key": "password",
                      "value": "{{app_client_secret}}",
                      "type": "string"
                    }
                  ]
                }
              },
              "protocolProfileBehavior": {
                "followRedirects": false,
                "followOriginalHttpMethod": false,
                "followAuthorizationHeader": false
              },
              "response": []
            }
          ],
          "protocolProfileBehavior": null,
          "response": []
        },
        {
          "name": "1 - Create Host",
          "item": [
            {
              "name": "List Inventories",
              "request": {
                "method": "GET",
                "url": {
                  "raw": "{{awx_api_endpoint}}/inventories/",
                  "query": null,
                  "protocol": null,
                  "host": [
                    "{{awx_api_endpoint}}/inventories/"
                  ],
                  "port": null,
                  "path": null
                },
                "description": "",
                "header": [
                  {
                    "key": "Authorization",
                    "value": "Bearer {{token}}",
                    "disabled": false,
                    "description": null
                  }
                ],
                "body": null,
                "auth": null
              },
              "protocolProfileBehavior": {
                "followRedirects": false,
                "followOriginalHttpMethod": false,
                "followAuthorizationHeader": false
              },
              "response": []
            },
            {
              "name": "List Inventory Hosts",
              "request": {
                "method": "GET",
                "url": {
                  "raw": "{{awx_api_endpoint}}/inventories/3/hosts/",
                  "query": null,
                  "protocol": null,
                  "host": [
                    "{{awx_api_endpoint}}/inventories/3/hosts/"
                  ],
                  "port": null,
                  "path": null
                },
                "description": "",
                "header": [
                  {
                    "key": "Authorization",
                    "value": "Bearer {{token}}",
                    "disabled": false,
                    "description": null
                  }
                ],
                "body": null,
                "auth": null
              },
              "protocolProfileBehavior": {
                "followRedirects": false,
                "followOriginalHttpMethod": false,
                "followAuthorizationHeader": false
              },
              "response": []
            },
            {
              "name": "Create Host",
              "request": {
                "method": "POST",
                "url": {
                  "raw": "{{awx_api_endpoint}}/inventories/3/hosts/",
                  "query": null,
                  "protocol": null,
                  "host": [
                    "{{awx_api_endpoint}}/inventories/3/hosts/"
                  ],
                  "port": null,
                  "path": null
                },
                "description": "",
                "header": [
                  {
                    "key": "Content-Type",
                    "value": "application/json",
                    "disabled": false,
                    "description": null
                  },
                  {
                    "key": "Authorization",
                    "value": "Bearer {{token}}",
                    "disabled": false,
                    "description": null
                  }
                ],
                "body": {
                  "mode": "raw",
                  "disabled": false,
                  "raw": "{\"name\":\"test-host-1\",\"description\":\"test host added from api\",\"enabled\":true}"
                },
                "auth": null
              },
              "protocolProfileBehavior": {
                "followRedirects": false,
                "followOriginalHttpMethod": false,
                "followAuthorizationHeader": false
              },
              "response": []
            }
          ],
          "protocolProfileBehavior": null,
          "response": []
        },
        {
          "name": "2 - Run Job Template",
          "item": [
            {
              "name": "List Job Templates",
              "request": {
                "method": "GET",
                "url": {
                  "raw": "{{awx_api_endpoint}}/job_templates/",
                  "query": null,
                  "protocol": null,
                  "host": [
                    "{{awx_api_endpoint}}/job_templates/"
                  ],
                  "port": null,
                  "path": null
                },
                "description": "",
                "header": [],
                "body": null,
                "auth": {
                  "type": "oauth2",
                  "oauth2": [
                    {
                      "key": "accessToken",
                      "value": "***** Hidden credentials *****",
                      "type": "string"
                    },
                    {
                      "key": "addTokenTo",
                      "value": "header",
                      "type": "string"
                    }
                  ]
                }
              },
              "protocolProfileBehavior": {
                "followRedirects": false,
                "followOriginalHttpMethod": false,
                "followAuthorizationHeader": false
              },
              "response": []
            },
            {
              "name": "List Job Templates for Inventory",
              "request": {
                "method": "GET",
                "url": {
                  "raw": "{{awx_api_endpoint}}/inventories/3/job_templates/",
                  "query": null,
                  "protocol": null,
                  "host": [
                    "{{awx_api_endpoint}}/inventories/3/job_templates/"
                  ],
                  "port": null,
                  "path": null
                },
                "description": "",
                "header": [],
                "body": null,
                "auth": {
                  "type": "oauth2",
                  "oauth2": [
                    {
                      "key": "accessToken",
                      "value": "***** Hidden credentials *****",
                      "type": "string"
                    },
                    {
                      "key": "addTokenTo",
                      "value": "header",
                      "type": "string"
                    }
                  ]
                }
              },
              "protocolProfileBehavior": {
                "followRedirects": false,
                "followOriginalHttpMethod": false,
                "followAuthorizationHeader": false
              },
              "response": []
            },
            {
              "name": "Get Job Template 9",
              "request": {
                "method": "GET",
                "url": {
                  "raw": "{{awx_api_endpoint}}/job_templates/9/",
                  "query": null,
                  "protocol": null,
                  "host": [
                    "{{awx_api_endpoint}}/job_templates/9/"
                  ],
                  "port": null,
                  "path": null
                },
                "description": "",
                "header": [],
                "body": null,
                "auth": {
                  "type": "oauth2",
                  "oauth2": [
                    {
                      "key": "accessToken",
                      "value": "***** Hidden credentials *****",
                      "type": "string"
                    },
                    {
                      "key": "addTokenTo",
                      "value": "header",
                      "type": "string"
                    }
                  ]
                }
              },
              "protocolProfileBehavior": {
                "followRedirects": false,
                "followOriginalHttpMethod": false,
                "followAuthorizationHeader": false
              },
              "response": []
            },
            {
              "name": "Launch Job Template 9",
              "request": {
                "method": "POST",
                "url": {
                  "raw": "{{awx_api_endpoint}}/job_templates/9/launch/",
                  "query": null,
                  "protocol": null,
                  "host": [
                    "{{awx_api_endpoint}}/job_templates/9/launch/"
                  ],
                  "port": null,
                  "path": null
                },
                "description": "",
                "header": [],
                "body": null,
                "auth": {
                  "type": "oauth2",
                  "oauth2": [
                    {
                      "key": "accessToken",
                      "value": "***** Hidden credentials *****",
                      "type": "string"
                    },
                    {
                      "key": "addTokenTo",
                      "value": "header",
                      "type": "string"
                    }
                  ]
                }
              },
              "protocolProfileBehavior": {
                "followRedirects": false,
                "followOriginalHttpMethod": false,
                "followAuthorizationHeader": false
              },
              "response": []
            }
          ],
          "protocolProfileBehavior": null,
          "response": []
        },
        {
          "name": "3 - Jobs",
          "item": [
            {
              "name": "List Jobs",
              "request": {
                "method": "GET",
                "url": {
                  "raw": "{{awx_api_endpoint}}/jobs/",
                  "query": null,
                  "protocol": null,
                  "host": [
                    "{{awx_api_endpoint}}/jobs/"
                  ],
                  "port": null,
                  "path": null
                },
                "description": "",
                "header": [],
                "body": null,
                "auth": {
                  "type": "oauth2",
                  "oauth2": [
                    {
                      "key": "accessToken",
                      "value": "***** Hidden credentials *****",
                      "type": "string"
                    },
                    {
                      "key": "addTokenTo",
                      "value": "header",
                      "type": "string"
                    }
                  ]
                }
              },
              "protocolProfileBehavior": {
                "followRedirects": false,
                "followOriginalHttpMethod": false,
                "followAuthorizationHeader": false
              },
              "response": []
            },
            {
              "name": "Get Job 33",
              "request": {
                "method": "GET",
                "url": {
                  "raw": "{{awx_api_endpoint}}/jobs/33/",
                  "query": null,
                  "protocol": null,
                  "host": [
                    "{{awx_api_endpoint}}/jobs/33/"
                  ],
                  "port": null,
                  "path": null
                },
                "description": "",
                "header": [],
                "body": null,
                "auth": {
                  "type": "oauth2",
                  "oauth2": [
                    {
                      "key": "accessToken",
                      "value": "***** Hidden credentials *****",
                      "type": "string"
                    },
                    {
                      "key": "addTokenTo",
                      "value": "header",
                      "type": "string"
                    }
                  ]
                }
              },
              "protocolProfileBehavior": {
                "followRedirects": false,
                "followOriginalHttpMethod": false,
                "followAuthorizationHeader": false
              },
              "response": []
            }
          ],
          "protocolProfileBehavior": null,
          "response": []
        }
      ],
      "protocolProfileBehavior": null,
      "response": []
    }
  ]
}