{
  "swagger": "2.0",
  "info": {
    "title": "awx-api",
    "version": "v0.0.0"
  },
  "host": "awx",
  "schemes": [
    "https"
  ],
  "basePath": " FQDN HERE/api",
  "paths": {
    "/https://AWX FQDN HERE/api/v2/": {
      "get": {
        "summary": "Request",
        "description": "",
        "operationId": "72be75f5-c81c-4c1d-b2e6-331e5019d6d1",
        "responses": {
          "default": {
            "description": "no response description was provided for this operation"
          }
        },
        "parameters": []
      }
    },
    "/https://AWX FQDN HERE/api/v2/organizations/": {
      "get": {
        "summary": "List Orgs (with OAuth2)",
        "description": "",
        "operationId": "3482b9ce-5f70-4e5a-9307-6e9d391b5c2c",
        "responses": {
          "default": {
            "description": "no response description was provided for this operation"
          }
        },
        "security": [
          {
            "oauth_2_resource_owner_auth": []
          }
        ],
        "parameters": []
      }
    },
    "/https://AWX FQDN HERE/api/v2/organizations/2/": {
      "get": {
        "summary": "Get Org 2",
        "description": "",
        "operationId": "22c18d87-2e0f-42bd-a70d-b0cfe2d20208",
        "responses": {
          "default": {
            "description": "no response description was provided for this operation"
          }
        },
        "security": [
          {
            "basic_auth": []
          }
        ],
        "parameters": []
      }
    },
    "/https://AWX FQDN HERE/api/v2/applications/": {
      "post": {
        "summary": "Create App",
        "description": "",
        "operationId": "ec8057b1-fd01-43e5-826d-047a0efa2235",
        "consumes": [
          "application/json"
        ],
        "parameters": [
          {
            "required": false,
            "schema": {
              "type": "string",
              "default": "{\"name\":\"vRS Apps\",\"description\":\"vRealize Suite Integrations\",\"client_type\":\"confidential\",\"authorization_grant_type\":\"password\",\"skip_authorization\":false,\"organization\":2}"
            },
            "in": "body",
            "name": "body"
          }
        ],
        "responses": {
          "default": {
            "description": "no response description was provided for this operation"
          }
        },
        "security": [
          {
            "basic_auth": []
          }
        ]
      },
      "get": {
        "summary": "List Apps",
        "description": "",
        "operationId": "42ed94fd-b8e8-4031-a8e1-90e50618cfa1",
        "responses": {
          "default": {
            "description": "no response description was provided for this operation"
          }
        },
        "security": [
          {
            "basic_auth": []
          }
        ],
        "parameters": []
      }
    },
    "/https://AWX FQDN HERE/api/o/token/": {
      "post": {
        "summary": "Get Token",
        "description": "",
        "operationId": "90180857-d2fd-43d3-8012-0b76131e3bc1",
        "consumes": [
          "application/x-www-form-urlencoded"
        ],
        "parameters": [
          {
            "type": "string",
            "default": "password",
            "name": "grant_type",
            "required": false,
            "in": "formData"
          },
          {
            "type": "string",
            "default": "SVC USER LOGIN HERE",
            "name": "username",
            "required": false,
            "in": "formData"
          },
          {
            "type": "string",
            "default": "SVC USER PASSWORD HERE",
            "name": "password",
            "required": false,
            "in": "formData"
          },
          {
            "type": "string",
            "default": "write",
            "name": "scope",
            "required": false,
            "in": "formData"
          }
        ],
        "responses": {
          "default": {
            "description": "no response description was provided for this operation"
          }
        },
        "security": [
          {
            "basic_auth": []
          }
        ]
      }
    },
    "/https://AWX FQDN HERE/api/v2/inventories/": {
      "get": {
        "summary": "List Inventories",
        "description": "",
        "operationId": "7140fdc1-6c70-4f08-8ebc-730932592691",
        "responses": {
          "default": {
            "description": "no response description was provided for this operation"
          }
        },
        "security": [
          {
            "oauth_2_auth": []
          }
        ],
        "parameters": []
      }
    },
    "/https://AWX FQDN HERE/api/v2/inventories/3/hosts/": {
      "get": {
        "summary": "List Inventory Hosts",
        "description": "",
        "operationId": "68ad150b-60ea-4f4a-b3e3-f52b8d446a14",
        "responses": {
          "default": {
            "description": "no response description was provided for this operation"
          }
        },
        "security": [
          {
            "oauth_2_auth": []
          }
        ],
        "parameters": []
      },
      "post": {
        "summary": "Create Host",
        "description": "",
        "operationId": "3c7a83b8-db5f-484c-803a-f0198c7fd8dc",
        "consumes": [
          "application/json"
        ],
        "parameters": [
          {
            "required": false,
            "schema": {
              "type": "string",
              "default": "{\"name\":\"test-host-1\",\"description\":\"test host added from api\",\"enabled\":true}"
            },
            "in": "body",
            "name": "body"
          }
        ],
        "responses": {
          "default": {
            "description": "no response description was provided for this operation"
          }
        },
        "security": [
          {
            "oauth_2_auth": []
          }
        ]
      }
    },
    "/https://AWX FQDN HERE/api/v2/job_templates/": {
      "get": {
        "summary": "List Job Templates",
        "description": "",
        "operationId": "8cfca14e-15a4-4ce3-ae0d-26562c9a97c4",
        "responses": {
          "default": {
            "description": "no response description was provided for this operation"
          }
        },
        "security": [
          {
            "oauth_2_resource_owner_auth": []
          }
        ],
        "parameters": []
      }
    },
    "/https://AWX FQDN HERE/api/v2/inventories/3/job_templates/": {
      "get": {
        "summary": "List Job Templates for Inventory",
        "description": "",
        "operationId": "0a35d571-b91d-4a3d-8ae7-f4ba0e74d948",
        "responses": {
          "default": {
            "description": "no response description was provided for this operation"
          }
        },
        "security": [
          {
            "oauth_2_resource_owner_auth": []
          }
        ],
        "parameters": []
      }
    },
    "/https://AWX FQDN HERE/api/v2/job_templates/9/": {
      "get": {
        "summary": "Get Job Template 9",
        "description": "",
        "operationId": "7ed9d61f-f454-46c9-9744-3b49660f790b",
        "responses": {
          "default": {
            "description": "no response description was provided for this operation"
          }
        },
        "security": [
          {
            "oauth_2_resource_owner_auth": []
          }
        ],
        "parameters": []
      }
    },
    "/https://AWX FQDN HERE/api/v2/job_templates/9/launch/": {
      "post": {
        "summary": "Launch Job Template 9",
        "description": "",
        "operationId": "cfb6f976-35ca-4fd4-b502-b338589d9431",
        "responses": {
          "default": {
            "description": "no response description was provided for this operation"
          }
        },
        "security": [
          {
            "oauth_2_resource_owner_auth": []
          }
        ],
        "parameters": []
      }
    },
    "/https://AWX FQDN HERE/api/v2/jobs/": {
      "get": {
        "summary": "List Jobs",
        "description": "",
        "operationId": "a80ba229-fc1d-445b-85c0-41fc8a17a7c7",
        "responses": {
          "default": {
            "description": "no response description was provided for this operation"
          }
        },
        "security": [
          {
            "oauth_2_resource_owner_auth": []
          }
        ],
        "parameters": []
      }
    },
    "/https://AWX FQDN HERE/api/v2/jobs/33/": {
      "get": {
        "summary": "Get Job 33",
        "description": "",
        "operationId": "ca871963-1d51-4f2e-8264-1c1df366490d",
        "responses": {
          "default": {
            "description": "no response description was provided for this operation"
          }
        },
        "security": [
          {
            "oauth_2_resource_owner_auth": []
          }
        ],
        "parameters": []
      }
    }
  },
  "securityDefinitions": {
    "basic_auth": {
      "type": "basic"
    },
    "oauth_2_resource_owner_auth": {
      "flow": "password",
      "authorizationUrl": "https://AWX FQDN HERE/api/v2/api/o/token/",
      "type": "oauth2",
      "scopes": {}
    },
    "oauth_2_auth": {
      "type": "oauth2",
      "scopes": {}
    }
  },
  "tags": []
}